{
  "title": "Certbot - 申請 Https 所需的 SSL 憑證",
  "cells": [
    {
      "type": "text",
      "data": "<h1>教學</h1><div><a href=\"https://caloskao.org/ubuntu-use-certbot-to-automatically-update-lets-encrypt-certificate-authority/\">https://caloskao.org/ubuntu-use-certbot-to-automatically-update-lets-encrypt-certificate-authority/</a><br></div>"
    },
    {
      "type": "text",
      "data": "<h1>注意</h1><div>3 個月後憑證就會過期, NestJS 後端服務要更新 privkey.pem, fullchain.pem 的內容</div>"
    },
    {
      "type": "text",
      "data": "<h1>指令</h1><h2>更新憑證 - 如果未到期, 會提示不需更新</h2><div><font face=\"Menlo, Consolas, Ubuntu Mono, Monaco, source-code-pro, monospace\"><span style=\"font-size: 11.699999809265137px;\">確認 Ubantu 自動更新是否能正常執行, 移除參數 dry run 就會真正更新, 並且覆蓋舊的憑證</span></font></div>"
    },
    {
      "type": "code",
      "language": "typescript",
      "data": "$ sudo certbot renew --dry-run"
    },
    {
      "type": "text",
      "data": "<h2>取得憑證路徑</h2><div><div>獲取 certbot 生產的 privkey.pem, cert.pem 路徑</div></div>"
    },
    {
      "type": "code",
      "language": "typescript",
      "data": "$ sudo certbot certificates"
    },
    {
      "type": "code",
      "language": "typescript",
      "data": "Found the following certs:\n  Certificate Name: download-videos.site\n    Domains: download-videos.site\n    Expiry Date: 2020-09-03 02:34:13+00:00 (VALID: 44 days)\n    Certificate Path: /etc/letsencrypt/live/download-videos.site/fullchain.pem\n    Private Key Path: /etc/letsencrypt/live/download-videos.site/privkey.pem"
    },
    {
      "type": "text",
      "data": "<h1>更新Service上的憑證內容</h1><div>使用 nano 將伺服器上的 service/ssl 資料夾內的兩個憑證都更新</div>"
    },
    {
      "type": "code",
      "language": "typescript",
      "data": "$ cd ~/vd/service/ssl\n$ ls\n將上述找到的憑證路徑, 拷貝覆蓋原本內容\nfullchain.pem 拷貝內容到 cert.pem\nprivkey.pem 拷貝內容到 privkey.pem\nnano 快捷鍵 control + 6 標記第一行 > 按\"下\"方向鍵選到最後一行 > control + k 剪下\n$ npm run build 重新跑一次看看, 看會不會正常\n"
    }
  ]
}