{
  "title": "Objectvie-C .gitignore file",
  "cells": [
    {
      "type": "text",
      "data": "<a href=\"quiver-file-url/2D0363B3F0D9AB828CD8D840DB06EC9D.gitignore\">Objective-C.gitignore</a>"
    }
  ]
}