{
  "title": "好文章",
  "cells": [
    {
      "type": "text",
      "data": "Flask 建立 Web API -&nbsp;<a href=\"https://medium.com/datainpoint/flask-web-api-quickstart-3b13d96cccc2\">https://medium.com/datainpoint/flask-web-api-quickstart-3b13d96cccc2</a>"
    }
  ]
}