{
  "title": "Enable sharing - 開啟分享功能",
  "cells": [
    {
      "type": "text",
      "data": "<h1>URL</h1><div><a href=\"http://stackoverflow.com/questions/35931946/basic-example-for-sharing-text-or-image-with-uiactivityviewcontroller-in-swift\">http://stackoverflow.com/questions/35931946/basic-example-for-sharing-text-or-image-with-uiactivityviewcontroller-in-swift</a><br></div>"
    },
    {
      "type": "code",
      "language": "swift",
      "data": "// image to share\n        let image = UIImage(named: \"1242x2208\")\n        \n        // set up activity view controller\n        let imageToShare = [ image! ]\n        let activityViewController = UIActivityViewController(activityItems: imageToShare,\n                                                              applicationActivities: nil)\n        activityViewController.popoverPresentationController?.sourceView = self.view // so that iPads won't crash\n        \n        // exclude some activity types from the list (optional)\n        activityViewController.excludedActivityTypes = [ UIActivityType.airDrop, UIActivityType.postToFacebook ]\n        \n        // present the view controller\n        self.present(activityViewController, animated: true, completion: nil)"
    }
  ]
}