{
  "title": "AutoLayout - animation",
  "cells": [
    {
      "type": "text",
      "data": "<h1>參考網址</h1><div><a href=\"http://www.vienta.me/2015/05/18/AutoLayout-浅析动画（III）/\">http://www.vienta.me/2015/05/18/AutoLayout-浅析动画（III）/</a><br></div>"
    }
  ]
}