{
  "title": "Plist 連結產生器",
  "cells": [
    {
      "type": "text",
      "data": "<h1>說明</h1><div>ipa是不允許直接下載, 一定要透過 plist</div>"
    },
    {
      "type": "text",
      "data": "<h1>流程</h1><div><ol><li>ipa plist 都已放在網路空間上</li><li>.plist 設定 ipa 下載網址&nbsp;<img src=\"quiver-image-url/33420B5D18C093551B8AF07A089422EA.png\" alt=\"螢幕快照 2018-12-20 下午5.54.25.png\" width=\"1920\" height=\"1080\"></li><li>plist 的所在網址 apple 規定一定要用&nbsp;itms-services: 協定, 可以將 plist 下載網址透過&nbsp;<a href=\"quiver-file-url/7C5A712B64FE785C372B0E12D5FC05CA.zip\">AppleLinkGenerator.zip</a>&nbsp;轉成&nbsp;&nbsp;itms-services: 協定格式的網址<img src=\"quiver-image-url/BE7E08EB5E1CBED976AF9926D6CA466A.jpg\" alt=\"messageImage_1545300748443.jpg\" width=\"603\" height=\"444\"><br></li><li>當使用者點下載按鈕, 導向 plist 的所在網址 &gt; plist 拉出 ipa 給使用者下載</li></ol></div>"
    }
  ]
}