{
  "title": "NavigationController、ViewController 之間的畫面跳轉",
  "cells": [
    {
      "type": "text",
      "data": "<h1>參考網址</h1><div><a href=\"http://www.samirchen.com/view-controller-flow-in-ios/\">http://www.samirchen.com/view-controller-flow-in-ios/</a><br></div>"
    }
  ]
}