{
  "title": "任務 -  小幫手",
  "cells": [
    {
      "type": "code",
      "language": "swift",
      "data": "payload(也就是 rawDataToPost): 每一秒收集16554393.6\n30秒共收集\n4966318080,\n5025415168,\n\npayloadLen(也就是 storeDataIndex): 每一秒收集約 1926\n30 秒共收集\n57780,\n59340,\n\n\n\n每一秒紀錄  SIZE, 低數值沒碰手指, 高數值有碰手指\n1319\n1272\n1308\n1896\n1326\n1362\n1368\n1337\n1358\n1327\n1362\n1374\n3746\n1377\n3789\n2810\n1392\n1341\n1331\n1322\n1350\n2624"
    },
    {
      "type": "code",
      "language": "swift",
      "data": "信號檢測測試 API\n請求方式 POST\n\nhttps://dev.aniwear.io/signal_quality_check\nparam:\npet_type: string [dog|cat|rabbit|sugar glider|ginuea pig|parrot]\ndata_type: string [ecg]\nsample_rate: integer [1000 | 800]\nraw: JSON formatted raw data\ngain: float\nresponse:\nJSON format (edited) \n\n// Donald 對於參數的解釋\nfor gain, i suppose you should use \"GlobalConstants.ECG_GAIN_FACTOR\" (edited) \nsample_rate: use \"GlobalConstants.ECG_SAMPLING_RATE\"\nfor raw, you should use the \"data segment\" from \"rawDataToPost\" array\n\n// private var ecgGainFactor = Int(-1)\n// private var ecgSampleRate = Int(-1)\n// private var payload: UnsafeMutablePointer<UInt8>?\n\nAPI response\n🔵 JSON: [\"ai_signal_quality\": {\n    acceptable = False;\n    reason =     (\n        \"movement_artifact_or_loose_contact\",\n        \"no_signal\"\n    );\n}, \"elapse\": 3.016]"
    }
  ]
}