{
  "title": "免費向量圖",
  "cells": [
    {
      "type": "text",
      "data": "<h1>URL</h1><div><a href=\"https://en.ac-illust.com/\">https://en.ac-illust.com/</a><br></div><div><a href=\"http://www.playpcesor.com/2015/02/free-vectors-art-download.html\">http://www.playpcesor.com/2015/02/free-vectors-art-download.html</a><br></div>"
    }
  ]
}