{
  "title": "Docker Hub",
  "cells": [
    {
      "type": "text",
      "data": "<h1>Push to origin</h1><div>注意, images 要推上去到 origin, 務必要有 docker hub帳號作為前綴</div><div>以此為例我的帳號: rowanluo</div><div><ol><li><code>$ docker images</code>, 確認 image name 是否有加上 tag: rowanluo, 例如: rowanluo/myRepository, 如果正確跳過步驟2<br></li><li><code>$ docker tag oldRepositoryName rowanluo/newRepositoryName</code>, 修改 image name<br></li><li><code>$ docker login</code><br></li><li><code>$ docker images</code> &gt; 找出你要推的 image name<br></li><li><img src=\"quiver-image-url/F05C3CC5A5A40F00AE94D5B8C23FB1C2.png\" alt=\"截圖 2020-09-02 下午2.33.04.png\" width=\"746\" height=\"235\"><br></li><li><code>$ docker push repositoryName</code></li><li><font face=\"Menlo, Consolas, Ubuntu Mono, Monaco, source-code-pro, monospace\"><span style=\"font-size: 11.699999809265137px;\">下圖為成功推送</span></font></li></ol></div><div><img src=\"quiver-image-url/F6F87D6BD91CD147C4AD5B06A40AD26C.png\" alt=\"截圖 2020-09-01 下午3.04.48.png\" width=\"708\" height=\"146\"><br></div>"
    },
    {
      "type": "text",
      "data": "<h1>Auto building</h1><div><ol><li>Terminal 登入 docker hub account<br></li><li>Docker push image to origin<br></li><li>檢視在 docker hub 上你剛推的 image repository<br></li><li>點擊 manage 按鈕<br></li><li>點擊 build 分類 &gt; 連接 github 完成<br></li><li>點選 build 分類 &gt; GitHub 圖示 &gt; 選擇觸發建置 image 的規則 (一般預設就可)<br></li><li>成功如下, 刷新網頁確認進度</li></ol></div><div><img src=\"quiver-image-url/F778903EBC2DA8F2EAA6BEC4EBC08653.png\" alt=\"截圖 2020-09-01 下午3.31.38.png\" width=\"1920\" height=\"1080\"><br></div>"
    }
  ]
}