{
  "title": "訂餐網頁",
  "cells": [
    {
      "type": "text",
      "data": "<a href=\"https://docs.google.com/spreadsheets/d/1AxHf8KKg8vcTSvMQq7kXngGMSUHoPAzgbl6KwjYeJKs/edit#gid=764253339\">https://docs.google.com/spreadsheets/d/1AxHf8KKg8vcTSvMQq7kXngGMSUHoPAzgbl6KwjYeJKs/edit#gid=764253339</a>"
    }
  ]
}