{
  "title": "CB2 文件",
  "cells": [
    {
      "type": "text",
      "data": "<h1>公用文件</h1><ul><li><a href=\"https://docs.google.com/spreadsheets/d/1caJxQQEwX5OEHYog-cvEtbjL6UDqoYo9XtTfmQ2umGw/edit#gid=0\">問題紀錄表</a><br></li><li><a href=\"https://www.figma.com/file/y3zVxnOe7SRpuvvObNcsjx/2.0-design?node-id=117%253A0\">UI Flow</a><br></li><li><a href=\"https://docs.google.com/document/d/19apdNtHELoVtBppYnPnPj5XqlWNJw7Nz-dKX9QuNOus/edit#\">CB2 API</a><br></li><li><a href=\"https://docs.google.com/document/d/1CUPqKG5vCDr67lD1J02fwq_p8dgFVccmK8dY8X206Yc/edit\">CB1 API</a>&nbsp;CB2 很多都沿用此文件設定的參數<br></li><li><a href=\"https://dev.flurry.com/metrics/1\">Flurry</a><br></li><li><a href=\"https://docs.google.com/spreadsheets/d/1jBXXHU0r_z2l0NqkhhtG__rzkYaDzL8zNP_6DRLwu8s/edit#gid=0\">多國語系翻譯表</a><br></li></ul>"
    },
    {
      "type": "text",
      "data": "<h1>Eric 整理的</h1><div><ul><li><a href=\"https://whimsical.com/cardiobird-2-0-CJJjvqqvfvE1pBrs5LDjeb\">目前所有功能的 workflow</a><br></li><li><a href=\"https://whimsical.com/petinfo-page-L9VFwtDAb1aPEpDSvZxEfv\">Ecg 採集後的流程, 寵物註冊, 搜尋, 臨床輸入頁面</a><br></li></ul></div>"
    }
  ]
}