{
  "title": "VS code 推薦套件",
  "cells": [
    {
      "type": "text",
      "data": "<h1>URL</h1><div><a href=\"https://coffee0127.github.io/blog/2017/04/03/Top-10-Angular-VSCode-Extensions/\">https://coffee0127.github.io/blog/2017/04/03/Top-10-Angular-VSCode-Extensions/</a>&nbsp;(中文翻譯)<br></div><div><a href=\"http://devboosts.com/2017/02/08/top-10-vs-code-extensions/\">http://devboosts.com/2017/02/08/top-10-vs-code-extensions/</a>&nbsp;(英文)<br></div>"
    }
  ]
}