{
  "title": "PM2 啟動 NestJS",
  "cells": [
    {
      "type": "text",
      "data": "<h1>安裝</h1><div><a href=\"http://pm2.keymetrics.io/\">http://pm2.keymetrics.io/</a></div>"
    },
    {
      "type": "code",
      "language": "json",
      "data": "npm install pm2 -g"
    },
    {
      "type": "text",
      "data": "<h1>啟動 NestJS 應用</h1><div>終端機 &gt; cd 到根目錄 &gt; 下指令</div>"
    },
    {
      "type": "text",
      "data": "<h2>第一種啟動方法</h2>"
    },
    {
      "type": "code",
      "language": "json",
      "data": "// 注意, 下面指令--name, -- start,運算元跟字串之間一個有空格一個沒有\npm2 start npm --name processName -- start"
    },
    {
      "type": "text",
      "data": "<h2>第二種啟動方法</h2><div>這個方式未知原因, 會老是出現 sytax error</div>"
    },
    {
      "type": "code",
      "language": "json",
      "data": "pm2 start dist/main.js --name processName"
    },
    {
      "type": "text",
      "data": "<h1>指令</h1>"
    },
    {
      "type": "code",
      "language": "json",
      "data": "// 切換過去看服務的log, 如果要回到 pm2 只能ctl + c 中斷服務重新下 pm2指令\npm2 log\npm2 ls\npm2 status\npm2 delete processName\npm2 restart processName\npm2 stop processName\npm2 restart oldName --name newName // rename process"
    },
    {
      "type": "text",
      "data": "<h1>紀錄程序, 從開機可以用 Resurrect 恢復程序</h1><div><code>pm2 save</code></div><div><code>Pm2 resurrect</code><span style=\"color: rgb(0, 0, 0); font-family: Arial; font-size: 11pt; white-space: pre-wrap;\"></span></div><div><br></div>"
    }
  ]
}