{
  "title": "加解密 xml > pem",
  "cells": [
    {
      "type": "text",
      "data": "<h1>注意</h1><div>有些站轉出來格式是錯的, 目前以下這站台轉出來會是對的格式</div><a href=\"http://www.ssleye.com/pem_xml.html\">http://www.ssleye.com/pem_xml.html</a>"
    }
  ]
}