{
  "created_at" : 1470119378,
  "tags" : [
    "UITableViewCell"
  ],
  "title" : "UITableView - 按了 cell 的 button, 但是在執行的 action, sender 卻是 nil!",
  "updated_at" : 1470119607,
  "uuid" : "0EDEAA64-FDF9-4E12-BF0B-395B9F7EBC09"
}