{
  "title": "Carthage - 一款跟 CocoaPods 同為套件管理工具",
  "cells": [
    {
      "type": "text",
      "data": "<h1>URL</h1><div>有完整教學，還有 .dSYM 的用途說明及使用方法</div><div>.dSYM 讓你可以在斷點除錯時，進入你使用的 frameWork 程式碼中了！</div><div><a href=\"http://www.jianshu.com/p/a734be794019\">http://www.jianshu.com/p/a734be794019</a><br></div><div><br></div><div>也是不錯的教學</div><div><a href=\"http://www.isaced.com/post-265.html\">http://www.isaced.com/post-265.html</a><br></div>"
    },
    {
      "type": "text",
      "data": "<h1>在 Git 中忽略</h1><div>修改 .gitignore 文件，增加忽略 Carthage 文件夾就可以</div>"
    }
  ]
}