{
  "title": "Custom cordova plugin",
  "cells": [
    {
      "type": "text",
      "data": "<h1>詳細說明</h1><div>原理, 每一個檔案, 屬性皆說明清楚</div><div><a href=\"https://dotblogs.com.tw/clark/2015/10/23/153681\">https://dotblogs.com.tw/clark/2015/10/23/153681</a><br></div>"
    },
    {
      "type": "text",
      "data": "<h1>範例</h1><div><ul><li><a href=\"https://codingsans.com/blog/cordova-android-plugin\">https://codingsans.com/blog/cordova-android-plugin</a><br></li><li>Swift 寫的套件&nbsp;<a href=\"https://blog.ite2.com/swift-cordova-plugin/\">https://blog.ite2.com/swift-cordova-plugin/</a></li><li>此自定義套件的使用方法, 在根目錄中放入, 並使用指令加入&nbsp;<a href=\"quiver-file-url/9F4B5CF9-84FA-49D4-B6EF-D568CB25B07D\" style=\"color: rgb(128, 187, 255);\">neilplugin</a><br></li></ul></div>"
    },
    {
      "type": "text",
      "data": "<h1>Plugman 安裝</h1>"
    },
    {
      "type": "code",
      "language": "json",
      "data": "npm install -g plugman"
    },
    {
      "type": "text",
      "data": "<h1>創建套件</h1><div>cd 到你要創建的位置, 執行以下指令, 最少一定要有這三設定</div><div>注意: name 先暫時用全小寫, 例如 helloworldplugin</div><div>不要用駝峰字命名, 不要用 Minus, Dot 符號串接, 如: hello-world, hello.world</div><div>因為 plugman 會直接以此命名為基礎, 配置設定及生產 class 等等... 如果以上述命名法生產出來的檔案會有問題, 導致編譯失敗</div>"
    },
    {
      "type": "code",
      "language": "json",
      "data": "plugman create --name neilplugin --plugin_id cordova.plugin.neil.plugin --plugin_version 0.0.1"
    },
    {
      "type": "text",
      "data": "<h1>加入平台</h1>"
    },
    {
      "type": "code",
      "language": "json",
      "data": "plugman platform add --platform_name ios"
    },
    {
      "type": "text",
      "data": "<h1>創建 Package.json</h1><div>使用 - -path ./ 創建在套件目錄之下</div>"
    },
    {
      "type": "code",
      "language": "json",
      "data": "plugman createpackagejson --path ./"
    },
    {
      "type": "text",
      "data": "<h1>加入自定義套件到專案中</h1><div>在以下範例中, my-plugin 是存在桌面</div>"
    },
    {
      "type": "code",
      "language": "json",
      "data": "ionic cordova plugin add ~/desktop/my-plugin  "
    },
    {
      "type": "text",
      "data": "<h1>移除自定義套件</h1><div>如果忘記套件 id, 可以執行 $ ionic cordova plugin list</div><div><br></div>"
    },
    {
      "type": "code",
      "language": "json",
      "data": " ionic cordova plugin remove cordova-plugin-hello-world"
    },
    {
      "type": "text",
      "data": ""
    }
  ]
}