{
  "created_at" : 1500629123,
  "tags" : [
    "Firebase"
  ],
  "title" : "Firebase - 結合 Firebase 的 Authentication 和 Database 服務來達成登入及留言的功能",
  "updated_at" : 1500908038,
  "uuid" : "362348BF-F642-4EC8-B69C-52B4186E802E"
}