{
  "title": "Command launch iOS simulator",
  "cells": [
    {
      "type": "text",
      "data": "<a href=\"http://www.jianshu.com/p/8b943269239b\">http://www.jianshu.com/p/8b943269239b</a>"
    },
    {
      "type": "code",
      "language": "objectivec",
      "data": "列出所有模擬器裝置類型、ID、版本、狀態（是不是啟動）\nxcrun simctl list\n\n選擇你需要的模擬器ID, 並啟動模擬器\nxcrun instruments -w \"Device ID\""
    },
    {
      "type": "text",
      "data": ""
    },
    {
      "type": "text",
      "data": "<div><span style=\"color: rgb(36, 39, 41); background-color: rgb(239, 240, 241); font-family: Consolas, Menlo, Monaco, 'Lucida Console', 'Liberation Mono', 'DejaVu Sans Mono', 'Bitstream Vera Sans Mono', 'Courier New', monospace, sans-serif; white-space: pre-wrap;\">xcrun instruments -w \"iPhone 5 (8.0 Simulator)\"</span><br></div>"
    },
    {
      "type": "text",
      "data": ""
    }
  ]
}