{
  "title": "遠端桌面訪問 Ubantu (此資料先留著做參考)",
  "cells": [
    {
      "type": "text",
      "data": "<h1>Google 關鍵字</h1><div>mac vnc ubantu server<br></div><div>Mac xrdp ubantu (Mac 會需要用 Mircrosoft Remote Desktop 登入遠端桌面</div>"
    },
    {
      "type": "text",
      "data": "<h1>XRDP</h1><div>下次可以參照這篇做看看, 沒有嘗試過</div><div><a href=\"https://www.itread01.com/content/1547094813.html\">https://www.itread01.com/content/1547094813.html</a><br></div>"
    },
    {
      "type": "text",
      "data": "<h1>安裝 gnome 桌面管理器</h1><div><ul><li><a href=\"https://www.wikihow.com/Install-Gnome-on-Ubuntu\" style=\"color: rgb(128, 187, 255);\">https://www.wikihow.com/Install-Gnome-on-Ubuntu</a><br></li><li><a href=\"https://linuxconfig.org/how-to-install-gnome-on-ubuntu-18-04-bionic-beaver-linux\">https://linuxconfig.org/how-to-install-gnome-on-ubuntu-18-04-bionic-beaver-linux</a>&nbsp;<br></li><li><a href=\"https://snippetinfo.net/mobile/media/800\">https://snippetinfo.net/mobile/media/800</a>&nbsp;附加 VNC 遠端桌面連線簡易說明<br></li></ul></div>"
    },
    {
      "type": "text",
      "data": "<h1>確認 gnome 版本</h1>"
    },
    {
      "type": "code",
      "language": "typescript",
      "data": "Gnome-shell --version // Log GNOME Shell 3.34.1"
    },
    {
      "type": "text",
      "data": "<h1>確認端口狀態, 確認服務都是處於 listen 狀態</h1><div><span style=\"color: rgb(61, 70, 77); font-family: &quot;Pingfang SC&quot;, STHeiti, &quot;Lantinghei SC&quot;, &quot;Open Sans&quot;, Arial, &quot;Hiragino Sans GB&quot;, &quot;Microsoft YaHei&quot;, &quot;WenQuanYi Micro Hei&quot;, SimSun, sans-serif; font-size: 16px; font-variant-ligatures: normal; orphans: 2; widows: 2; background-color: rgb(255, 255, 255);\">netstat&nbsp; -tnl</span><br></div>"
    },
    {
      "type": "text",
      "data": "<h1>X11VNC 操作流程</h1>"
    },
    {
      "type": "code",
      "language": "typescript",
      "data": "x11vnc -storepasswd\nx11vnc -usepw"
    },
    {
      "type": "text",
      "data": "<h1>曾經實驗的經驗</h1><div><a href=\"https://my.oschina.net/chaoshu/blog/677139\">https://my.oschina.net/chaoshu/blog/677139</a><br></div><div>ubantu 安裝了grome3, xrdp</div><div>Mac 使用 Mircrosoft Remote Desktop 登入, 會只看到一片黑的背景色</div><div>有找到解法如下, 但是未嘗試</div><div><br></div><div><img src=\"quiver-image-url/32D22E0031628FA9D074CC8062599D71.jpg\" alt=\"messageImage_1571817679103.jpg\" width=\"763\" height=\"566\"><br></div>"
    }
  ]
}