{
  "title": "TEMP",
  "cells": [
    {
      "type": "text",
      "data": "<ul><li>美術圖<br></li><li>語系翻譯, 七種語系</li><li>使用者條款等等</li><li>API 文件</li><li>串上所有與第三方的會員, 攜點機制? 接自己家的比較簡單, 但是其他廠商的呢?</li><li>使用的UI框架(參考 APP2 的UI框架)</li><li>Firebase</li><li>轉帳, 儲存點數的驗證機制是? SMS?</li><li>對方提供一個 apple developer.</li></ul>"
    }
  ]
}