{
  "title": "電容器打包工具",
  "cells": [
    {
      "type": "text",
      "data": "<h1>高級配置</h1><div>設定 app name, bundle ID ...</div><div><a href=\"https://capacitor.ionicframework.com/docs/basics/configuring-your-app/\">https://capacitor.ionicframework.com/docs/basics/configuring-your-app/</a><br></div>"
    },
    {
      "type": "text",
      "data": "<h1>如果有安裝新的套件, 或者新增程式碼</h1>"
    },
    {
      "type": "code",
      "language": "json",
      "data": "npx cap copy\n\n\"run:ios\": \"ionic capacitor run ios -l --address=0.0.0.0\""
    }
  ]
}