{
  "title": "筆記",
  "cells": [
    {
      "type": "text",
      "data": "<h1>備份</h1><div>從 remote clone 後, 手動拷貝一份做備份, 因為有碰到 SVN 操作錯誤, 又只能重新再 clone, 非常浪費時間</div>"
    },
    {
      "type": "text",
      "data": "<h1>Revision (可以理解成 git commit)</h1><div><ul><li>不能產生local revision<br></li><li>一但執行 commit 就會產生&nbsp;revision 並 push to remote repo<br></li><li>Remote 的&nbsp;revision 是無法取消或者刪除的(目前已知, 但是也許有像 git force push 可以蓋過去)</li></ul></div>"
    },
    {
      "type": "text",
      "data": "<h1>Rollback</h1><div>將某個 revision 回朔到指定的舊版本</div><div>以附件 1 作為範例, 我們想回朔到 497 revision</div><div><ol><li>brew install svn</li><li>將要回朔的資料夾 Update 到最新 revision by smartSVN</li><li><a href=\"https://stackoverflow.com/questions/814433/how-do-i-return-to-an-older-version-of-our-code-in-subversion\">https://stackoverflow.com/questions/814433/how-do-i-return-to-an-older-version-of-our-code-in-subversion</a>&nbsp;<br></li><ol><li>cd 到你要回朔的資料夾</li><li><code>svn merge -r 503:497 .</code> (注意, 末端的 Dot 一定要加, 代表此資料夾要執行這命令)</li></ol><li>產生衝突的檔案, 可以透過 smartsvn, 右鍵 click &gt; mark resolve &gt; 選擇解決衝突的方式</li><li>如果 revert 衝突的檔案, 那就表示放棄自己本地的變更, 使用 remote 的變更</li></ol></div><div><br></div><div>附件1</div><div><img src=\"quiver-image-url/BE9A1A50E34402F98A571C35C2754481.png\" alt=\"截圖 2021-01-15 上午9.57.40.png\" width=\"1148\" height=\"432\"><br></div>"
    }
  ]
}