{
  "title": "權限",
  "cells": [
    {
      "type": "text",
      "data": "<h1>URL</h1><div><a href=\"https://github.com/delba/Permission\">https://github.com/delba/Permission</a><br></div>"
    }
  ]
}