{
  "title": "Storyboard Dock - First responder object",
  "cells": [
    {
      "type": "text",
      "data": "<h1>作用</h1><div><span style=\"font-family: 'Helvetica Neue', Helvetica, Arial, sans-serif; font-size: 14px;\">First Responder&nbsp;</span><span style=\"color: rgb(51, 51, 51); font-family: 'Helvetica Neue', Helvetica, Arial, sans-serif; font-size: 14px; background-color: rgb(245, 245, 245);\">是一個代理對象, 指的是任何對象在任何給定的時間內的第一響應狀態</span></div>"
    },
    {
      "type": "text",
      "data": "<h1>例子</h1><div><div style=\"color: rgb(221, 221, 221);\"><span style=\"font-family: 'Helvetica Neue', Helvetica, Arial, sans-serif; font-size: 14px;\">舉一個例子,你可以把按鈕的Touch Up Inside事件連接到First Responder的selector上，action 選擇 select all</span></div><div style=\"color: rgb(221, 221, 221);\"><span style=\"font-family: 'Helvetica Neue', Helvetica, Arial, sans-serif; font-size: 14px;\">如果在某個時候, 一個 textView 是&nbsp;</span><span style=\"font-family: 'Helvetica Neue', Helvetica, Arial, sans-serif; font-size: 14px;\">First Responder</span></div><div style=\"color: rgb(221, 221, 221);\"><span style=\"font-family: 'Helvetica Neue', Helvetica, Arial, sans-serif; font-size: 14px;\">你可以按下按鈕將 textView 內輸入的全部文字進行 select all 動作，選取所有的文字</span></div></div>"
    }
  ]
}