{
  "title": "限制輸入字數",
  "cells": [
    {
      "type": "code",
      "language": "objectivec",
      "data": "//UITextField\n\n- (BOOL)textField:(UITextField *)textField shouldChangeCharactersInRange:(NSRange)range replacementString:(NSString *)string {\n    NSUInteger textLimit = 20;\n    \n    return textField.text.length + (string.length - range.length) <= textLimit;\n}"
    },
    {
      "type": "code",
      "language": "objectivec",
      "data": "//UITextView\n- (BOOL)textView:(UITextView *)textView shouldChangeTextInRange:(NSRange)range replacementText:(NSString *)text {\n    return textView.text.length + (text.length - range.length) <= textLimit;\n}"
    }
  ]
}