{
  "title": "UIView - convertRect",
  "cells": [
    {
      "type": "text",
      "data": "參考網址<div><a href=\"http://greenchiu.github.io/blog/2014/09/01/memo-the-uiview-convertrect/\">http://greenchiu.github.io/blog/2014/09/01/memo-the-uiview-convertrect/</a><br></div>"
    },
    {
      "type": "text",
      "data": ""
    }
  ]
}