{
  "title": "property modifier - copy (成員變數修飾字 - copy)",
  "cells": [
    {
      "type": "text",
      "data": "<h1>參考網址</h1><div><a href=\"https://github.com/ChenYilong/iOSInterviewQuestions/blob/master/01《招聘一个靠谱的iOS》面试题参考答案/《招聘一个靠谱的iOS》面试题参考答案（上）.md#2-什么情况使用-weak-关键字相比-assign-有什么不同\">https://github.com/ChenYilong/iOSInterviewQuestions/blob/master/01《招聘一个靠谱的iOS》面试题参考答案/《招聘一个靠谱的iOS》面试题参考答案（上）.md#2-什么情况使用-weak-关键字相比-assign-有什么不同</a><br></div>"
    },
    {
      "type": "text",
      "data": "<h1>功能</h1><div>因父類指針可以指向子類的“對象” (NSString *testString = @“TEST”; @“TEST” 就是對象，也就是記憶體儲存數值)，使用 copy 為的就是不受外界影響，無論我 copy 的 target 是 mutable (可變) 或 immutable (不可變)，得到的就是 “不可變” 的 target</div><div><br></div>"
    }
  ]
}