{
  "title": "員工資訊",
  "cells": [
    {
      "type": "text",
      "data": "代號 NF-0070<div><br></div><h1>請假系統</h1><div><a href=\"https://www.hrmis-group.com/NewHRMIS/login.aspx\">https://www.hrmis-group.com/NewHRMIS/login.aspx</a><br></div><div>帳號: NF-0070</div><div>密碼: 身分證後五碼</div><div><br></div><h1>另外一個系統, 要 VPN 過去設定的</h1><div>帳號: senses\\rowan.lo</div><div>密碼: y@changl@33</div>"
    }
  ]
}