{
  "title": "Foundation - String API",
  "cells": [
    {
      "type": "text",
      "data": "<h1>URL</h1><div><a href=\"http://www.jianshu.com/p/14d33c82b7d0\">http://www.jianshu.com/p/14d33c82b7d0</a><br></div>"
    }
  ]
}