{
  "title": "模板",
  "cells": [
    {
      "type": "text",
      "data": "<h1>URL</h1><div><a href=\"http://www.newcger.com/\">http://www.newcger.com/</a><br></div><div><a href=\"http://www.cgown.com/ae/ae-project/22527.html\">http://www.cgown.com/ae/ae-project/22527.html</a><br></div><div></div>"
    }
  ]
}