{
  "title": "即時更新自動重新整理服務器",
  "cells": [
    {
      "type": "text",
      "data": "<h1>URL</h1><div><a href=\"https://github.com/tapio/live-server\">https://github.com/tapio/live-server</a><br></div>"
    },
    {
      "type": "text",
      "data": "<h1>目標</h1><div>使用此套件, 可以自動重新整理, 不需要再手動刷新預覽頁面</div>"
    },
    {
      "type": "text",
      "data": "<h1>使用方法</h1><div>Console 輸入 live-server, 更多指令請查閱 url</div>"
    }
  ]
}