{
  "title": "Apache web server ",
  "cells": [
    {
      "type": "text",
      "data": "<h1>URL</h1><div><a href=\"https://www.digitalocean.com/community/tutorials/how-to-install-the-apache-web-server-on-ubuntu-18-04-quickstart\">https://www.digitalocean.com/community/tutorials/how-to-install-the-apache-web-server-on-ubuntu-18-04-quickstart</a><br></div>"
    },
    {
      "type": "text",
      "data": "<h1>Google 關鍵字</h1><div>LAMP</div><div>Ubantu Http server</div>"
    },
    {
      "type": "text",
      "data": "<h1>配置</h1><div>sudo nano /etc/apache2/sites-available/vd.conf<br></div>"
    },
    {
      "type": "text",
      "data": "<h1>注意</h1><div>配置中的 Document root 要正確, 會關係能不能正確顯示</div>"
    },
    {
      "type": "code",
      "language": "typescript",
      "data": "<VirtualHost *:80>\n    ServerAdmin webmaster@localhost\n    ServerName your_domain\n    ServerAlias your_domain\n    DocumentRoot /var/www/your_domain\n    ErrorLog ${APACHE_LOG_DIR}/error.log\n    CustomLog ${APACHE_LOG_DIR}/access.log combined\n</VirtualHost>"
    },
    {
      "type": "text",
      "data": "<h1>HTTPS 配置</h1><div>先記錄, 因為啟用後網址不能訪問</div>"
    },
    {
      "type": "code",
      "language": "typescript",
      "data": "<VirtualHost *:80>\n    ServerAdmin webmaster@localhost\n    ServerName video_downloader\n    ServerAlias vd\n    DocumentRoot /var/www/vd/www\n    ErrorLog ${APACHE_LOG_DIR}/error.log\n    CustomLog ${APACHE_LOG_DIR}/access.log combined\nRewriteEngine on\nRewriteCond %{SERVER_NAME} =download-videos.site [OR]\nRewriteCond %{SERVER_NAME} =vd [OR]\nRewriteCond %{SERVER_NAME} =video_downloader\nRewriteRule ^ https://%{SERVER_NAME}%{REQUEST_URI} [END,NE,R=permanent]\n</VirtualHost>"
    },
    {
      "type": "text",
      "data": "<h1>新增網站</h1><div><a href=\"https://learninginfree.blogspot.com/2018/04/ubuntu-apache2-port.html\">https://learninginfree.blogspot.com/2018/04/ubuntu-apache2-port.html</a><br></div><div><br></div><div>列出 Apache 中所有 Viturl host 配置檔</div><div>$ sudo ls /etc/apache2/sites-available<br></div>"
    }
  ]
}