{
  "title": "AutoLayout - ScrollView",
  "cells": [
    {
      "type": "text",
      "data": "<h1>參考網址</h1><div><a href=\"http://nonomori.farbox.com/post/scrollview-yu-autolayout\">http://nonomori.farbox.com/post/scrollview-yu-autolayout</a><br></div>"
    }
  ]
}