{
  "title": "TableView - section header nib - 使用 nib 自定義 section header footer",
  "cells": [
    {
      "type": "text",
      "data": "<h1>步驟</h1><div>創建 nib、class (繼承自 UITableViewHeaderFooterView)</div><div>在你要使用的 controller viewDidLoad 中註冊此 header, 以及給予對應的 identifier</div><div>實作以下兩個 delegate, 並且在&nbsp;viewForHeaderInSection 將 header 給回傳</div>"
    },
    {
      "type": "code",
      "language": "swift",
      "data": "    func tableView(_ tableView: UITableView, heightForHeaderInSection section: Int) -> CGFloat {\n        return 70\n    }\n    func tableView(_ tableView: UITableView, viewForHeaderInSection section: Int) -> UIView? {\n        \n        return tableView.dequeueReusableHeaderFooterView(withIdentifier: ChatroomVC.headerIdentifier)\n    }\n"
    }
  ]
}