{
  "title": "View controller dock - First responder",
  "cells": [
    {
      "type": "text",
      "data": "<h1>參考網址</h1><div><a href=\"http://www.devdiv.com/storyboard_first_responder_-blog-1-50012.html\">http://www.devdiv.com/storyboard_first_responder_-blog-1-50012.html</a><br></div>"
    }
  ]
}