{
  "title": "初始設定",
  "cells": [
    {
      "type": "text",
      "data": "<h1>基礎</h1><div><pre style=\"background-color: rgb(43, 43, 43);\"><ol><li style=\"color: rgb(169, 183, 198); font-family: Menlo; font-size: 10.5pt;\"><span style=\"font-size: 10.5pt;\">manifest = Xcode budle setting</span></li><li><span style=\"font-family: Menlo; font-size: 10.5pt;\">package 是 APP 唯一識別碼，</span><span style=\"font-family: Menlo; font-size: 10.5pt;\">package=</span><span style=\"font-family: Menlo; font-size: 10.5pt;\">\"com.example.yo_chang_luo.helloworld</span><font face=\"Menlo\" style=\"color: rgb(221, 221, 221); font-family: Menlo;\"><span style=\"font-size: 14px;\">”</span></font><span style=\"font-family: Menlo; font-size: 10.5pt;\">&gt;</span></li><li><span style=\"font-family: Menlo; font-size: 10.5pt;\">intent = segue</span><br></li><li><font face=\"Menlo\"><span style=\"font-size: 14px;\">設定layout 單位用 - dp</span></font></li><li><font face=\"Menlo\"><span style=\"font-size: 14px;\">dp 在不同裝置上，dp 大小是根據裝置的解析度決定，dpi -</span></font><span style=\"font-family: verdana, sans-serif; font-size: small; white-space: normal; widows: 1;\">Density-independent -Inch</span></li><li><span style=\"font-family: verdana, sans-serif; font-size: small; white-space: normal; widows: 1;\"><a href=\"http://jasonandroid.blogspot.tw/2013/10/android-pixel-dp.html\">http://jasonandroid.blogspot.tw/2013/10/android-pixel-dp.html</a><br></span></li><li>res - resource</li><li>drawable - 圖檔、樣式設定檔、按鈕形狀、按鈕行為</li></ol></pre></div>"
    }
  ]
}