{
  "title": "背景知識",
  "cells": [
    {
      "type": "text",
      "data": "<h2>Cardio Bird 藍牙裝置與 APP 的操作指南</h2><div><a href=\"https://www.cardiobird.com/on-boarding/on-boarding-guide/zh_tw/self_onboarding.html\">https://www.cardiobird.com/on-boarding/on-boarding-guide/zh_tw/self_onboarding.html</a></div><h2>B2C 文件</h2><div><a href=\"/Users/rowan/Documents/背景知識/B2C brochure TC.pdf\">B2C brochure TC.pdf</a></div><div><h2>B2B 文件</h2></div><div><a href=\"/Users/rowan/Documents/背景知識/B2B brochure TC.pdf\">B2B brochure TC.pdf</a><br></div><div><ul><li>Ax 快速檢測<br></li><li>PAC 手術前麻醉評估<br></li><li>TRK 追蹤<br></li><li>ER 急診</li></ul><h1>Joe 的噪音辨識教學</h1></div><div><a href=\"https://www.youtube.com/watch?v=ntWJuMf3Zbc&amp;feature=youtu.be\">https://www.youtube.com/watch?v=ntWJuMf3Zbc&amp;feature=youtu.be</a><br></div><div><br></div><div><ul><li>貓狗, T 可以是往上, 往下, 甚至看不到<br></li><li>P 是心房的活動</li><li>QRS 是心室的活動</li><li>lead 2 的 P 一定是往上的, 根據此規則可以判斷是不是夾反了</li><li>看不到 P, 會擔心信號是不是正常的, 是否能上傳呢?? 只要基線清楚就可以</li><li>對客戶來說只要能看到清楚的 P, QRS 就可以上傳</li></ul><div><br></div><h2>各類心電圖障礙排除</h2><ul><li>lead off:&nbsp;</li><li><img src=\"quiver-image-url/D3B036E50B13BA64769170AC5078E91D.png\" alt=\"截圖 2020-12-16 下午4.54.15.png\" width=\"831\" height=\"196\"></li><ul><li>原因</li><ul><li>線斷</li><li>沒接好</li><li>機器壞</li></ul><li>排除</li><ul><li>放自己雙手拇指試試</li><li>重開偵測器, APP</li></ul></ul></ul><div><br></div><ul><li>AC noise(thick baseline 粗基線), 交流電干擾造成的</li><li><img src=\"quiver-image-url/B22909B75AF5CCB7F5DDAE1E88FCE689.png\" alt=\"截圖 2020-12-16 下午4.53.45.png\" width=\"652\" height=\"242\"></li><ul><li>如何判斷?</li><ul><li>穩定的速度及頻率, 出現在 baseline</li><li>如果用自己手指去判斷也是同樣強干擾, 就是環境導致</li></ul><li>原因</li><ul><li>沒接好, 毛髮不是好的傳導體, 毛髮並沒有讓機器直接碰觸到皮膚採集, 導致採集到空氣中的強訊號</li><li>環境影響</li></ul><li>解法</li><ul><li>確認有沒有夾好</li><li>有沒有夾到皮膚上</li><li>承上, 如果真要再乾的皮膚上做傳導訊號, 可以噴上酒精, 水, 導電膠</li><li>檢查周遭有沒有高電流的儀器在運作, 例如 X 光, 手術燈</li></ul></ul></ul><div><br></div><ul><li>Muscle tremor(肌肉震顫)</li><li><img src=\"quiver-image-url/52BCA7EE7C53B0AAC9AF803BA38F5787.png\" alt=\"截圖 2020-12-16 下午5.07.19.png\" width=\"548\" height=\"204\"><br></li><ul><li>原因: 通常是小動物害怕所導致</li><li>解法</li><ul><li>例如他的腿, 可能站在桌上, 有一個施力點給動物, 那就會出現震顫, 試著把動物抬起來</li><li>距離身體越遠, 震顫出現機率越低, 採集腳掌或者前腿得到的結果其實是差不多的, 試試看腳掌吧</li></ul></ul></ul><div><br></div><ul><li>Baseline wondering (基線徘徊, 意思是 Baseline 以緩慢的速度忽高忽低)</li><li><img src=\"quiver-image-url/53F3D1F485B5865548662CF9054846B8.png\" alt=\"截圖 2020-12-16 下午5.25.34.png\" width=\"575\" height=\"207\"></li><ul><li>原因: 呼吸引起, 動物緊張或者呼吸困難</li><li>解法: 已透過 AI 方式校正</li></ul></ul><div><br></div><ul><li>Reverse polarity(反極性, 可以理解成正負極裝顛倒)</li><li>&nbsp;<img src=\"quiver-image-url/FD869CD1F0703A7D9B81708617A9F7E1.png\" alt=\"截圖 2020-12-16 下午5.25.55.png\" width=\"532\" height=\"196\"></li><ul><li>原因: 夾反了</li><li>解法: 確認正負極, 夾對方向</li></ul></ul><div><br></div><ul><li>Movement artifact (幅度變化非常大, 而且是不規則的)</li><li><img src=\"quiver-image-url/EB7BE17F3EC1577F842E76EEBB53E687.png\" alt=\"截圖 2020-12-16 下午5.38.21.png\" width=\"551\" height=\"228\"></li><ul><li>注意, 很容易跟肌肉震顫搞混</li><li>原因: 動物亂動</li><li>解法: 安撫動物, 讓他安靜下來</li></ul></ul></div>"
    }
  ]
}