{
  "title": "腳本打包",
  "cells": [
    {
      "type": "text",
      "data": "<div><h1>CI.sh 在做什麼?</h1><div>透過 ci.sh 執行 shell 檔案edit_config/edit_config.sh 將四散的 config 資料收集彙整生成一份新的 config 覆蓋掉原本的 專案 config.</div></div>"
    },
    {
      "type": "text",
      "data": "<h1>步驟</h1><div><ul><li>使用 Homebrew install fastlane, 然後 cd 到 iOS 專案, 執行 fastlane init.<br></li><li>新加入的開發者成員要確保有此 Distribution 檔案(用來簽署 App store, Adhoc 的app), 如附圖1, 可以透過 Xcode, Apple Developer 後</li><li>開啟專案中的 CI 資料夾 &gt; $ sh ci.sh 執行打包腳本.</li></ul></div>"
    },
    {
      "type": "text",
      "data": "<h1>附圖 1</h1><div><img src=\"quiver-image-url/24C9D80F91809FA94E2F1646A58F5E05.png\" alt=\"截圖 2020-11-06 下午2.07.55.png\" width=\"1920\" height=\"1080\"><br></div>"
    }
  ]
}