{
  "title": "預載 class, 避免多個 .swift 都 import 同一個 framework",
  "cells": [
    {
      "type": "text",
      "data": "<h1>建立一個 bridge file,&nbsp;</h1><div>參考建立方法:&nbsp;<a href=\"quiver-note-url/2E562B7E-3CFE-431F-B97F-5C0CFA36A5E7\">Bridge objectiveC file</a></div>"
    },
    {
      "type": "text",
      "data": "<h1>使用 @ ModuleName; 載入 framework</h1><div><img src=\"quiver-image-url/297CAB273B60ADC34D6E54A219798311.png\" alt=\"螢幕快照 2017-03-01 下午4.52.19.png\"><br></div>"
    }
  ]
}