{
  "title": "ECG 測試紀錄",
  "cells": [
    {
      "type": "code",
      "language": "swift",
      "data": "13筆樣本數\n每5秒 detectSignalArray 總採集量\n平均 182\n 5 秒最低總採集量 >= 150 就是合法的\n\n183\n188\n161\n188\n173\n190\n214\n183\n195\n181\n163\n163\n183"
    },
    {
      "type": "code",
      "language": "swift",
      "data": "14筆樣本數\n每5秒 storeDataIndexForHelper 總採集量\n平均 182\n 5 秒最低總採集量 >= 150 就是合法的\n \n 3860\n 2800\n 3760\n 3780\n 3580\n 3860\n 3360\n 3480\n 3560\n 3360\n 3380\n 3820\n 3840\n 3760"
    }
  ]
}