{
  "title": "CMMotionManager",
  "cells": [
    {
      "type": "text",
      "data": "<h1>URL</h1><div><a href=\"http://bigbelldev.com/blog/2013/08/05/ios-accelerometer/\">http://bigbelldev.com/blog/2013/08/05/ios-accelerometer/</a></div>"
    },
    {
      "type": "text",
      "data": "<h1>用途</h1><div>為什麼要使用 CMMotionManager ?&nbsp;<a href=\"http://www.w2bc.com/article/79516\">http://www.w2bc.com/article/79516</a><br></div><div>實現對裝置“重力加速度計”的識別，UIDeviceOrientation &nbsp;如果手機沒有動作，會產生誤判</div><div>舉例：假設你手機保持橫向，點開一個 cell, 進去之後影片是不會轉向的，他會依然保持在 Portrait，因為 Orientation’s Notification 沒有被觸發！</div>"
    },
    {
      "type": "code",
      "language": "objectivec",
      "data": "- (void)initializeMotionManager\n{\n    motionManager = [[CMMotionManager alloc] init];\n    motionManager.accelerometerUpdateInterval = .2;\n    motionManager.gyroUpdateInterval = .2;\n\n    [motionManager startAccelerometerUpdatesToQueue:[NSOperationQueue currentQueue]\n               withHandler:^(CMAccelerometerData  *accelerometerData, NSError *error) {\n                      if (!error) {\n                                [self outputAccelertionData:accelerometerData.acceleration];\n                      }\n                      else{\n                                NSLog(@\"%@\", error);\n                      }\n    }];\n}"
    },
    {
      "type": "code",
      "language": "objectivec",
      "data": "//公用固定寫法\n- (void)outputAccelertionData:(CMAcceleration)acceleration\n{\n    UIInterfaceOrientation orientationNew;\n\n    if (acceleration.x >= 0.75) {\n        orientationNew = UIInterfaceOrientationLandscapeLeft;\n    }\n    else if (acceleration.x <= -0.75) {\n        orientationNew = UIInterfaceOrientationLandscapeRight;\n    }\n    else if (acceleration.y <= -0.75) {\n        orientationNew = UIInterfaceOrientationPortrait;\n    }\n    else if (acceleration.y >= 0.75) {\n        orientationNew = UIInterfaceOrientationPortraitUpsideDown;\n    }\n    else {\n        // Consider same as last time\n        return;\n    }\n\n    if (orientationNew == orientationLast)\n        return;\n\n    orientationLast = orientationNew;\n}"
    }
  ]
}