{
  "title": "Autoresizing",
  "cells": [
    {
      "type": "text",
      "data": "<h1>參考網址</h1><div><a href=\"https://blog.cnbluebox.com/blog/2014/09/09/appkai-fa-zhe-xu-yao-wei-iphone6zuo-chu-gai-bian/\">https://blog.cnbluebox.com/blog/2014/09/09/appkai-fa-zhe-xu-yao-wei-iphone6zuo-chu-gai-bian/</a><br></div>"
    }
  ]
}