{
  "title": "資源 - App icons makers",
  "cells": [
    {
      "type": "text",
      "data": "<h1>URL</h1><div><a href=\"https://makeappicon.com/download/473f6d6148f848979c4e2d498d8a2d3d\">https://makeappicon.com/download/473f6d6148f848979c4e2d498d8a2d3d</a><br></div>"
    }
  ]
}