{
  "title": "Mysql server",
  "cells": [
    {
      "type": "text",
      "data": "<ul><li><a href=\"https://leadingtides.com/article/%E6%95%99%E5%AD%B8-%E5%A6%82%E4%BD%95%E5%9C%A8-Ubuntu-18.04-%E5%AE%89%E8%A3%9D-MySQL-8.0\">https://leadingtides.com/article/%E6%95%99%E5%AD%B8-%E5%A6%82%E4%BD%95%E5%9C%A8-Ubuntu-18.04-%E5%AE%89%E8%A3%9D-MySQL-8.0</a><br></li><li><a href=\"https://support.rackspace.com/how-to/installing-mysql-server-on-ubuntu/\">https://support.rackspace.com/how-to/installing-mysql-server-on-ubuntu/</a><br></li><li><a href=\"https://andy6804tw.github.io/2019/01/29/ubuntu-mysql-setting/#1-%E7%B7%A8%E8%BC%AF-mysqldcnf\">https://andy6804tw.github.io/2019/01/29/ubuntu-mysql-setting/#1-%E7%B7%A8%E8%BC%AF-mysqldcnf</a><br></li><li><a href=\"https://www.digitalocean.com/community/tutorials/how-to-install-mysql-on-ubuntu-18-04\">https://www.digitalocean.com/community/tutorials/how-to-install-mysql-on-ubuntu-18-04</a><br></li></ul>"
    },
    {
      "type": "text",
      "data": "<h1>MySQL 配置</h1><div>sudo nano /etc/mysql/mysql.conf.d/mysqld.cnf</div>"
    },
    {
      "type": "text",
      "data": "<h1>啟動</h1><div>sudo systemctl status mysql.service<br></div>"
    },
    {
      "type": "text",
      "data": "<h1>重啟</h1><div><span style=\"font-family: Menlo, Consolas, &quot;Ubuntu Mono&quot;, Monaco, source-code-pro, monospace; font-size: 14px; orphans: 2; widows: 2;\">sudo service mysql restart</span><br></div>"
    },
    {
      "type": "text",
      "data": "<h1>確認狀態</h1><div>systemctl status mysql.service<br></div>"
    },
    {
      "type": "text",
      "data": "<h1>安全設置</h1><div>sudo mysql_secure_installation</div>"
    },
    {
      "type": "text",
      "data": "<h1>Console</h1><div>sudo mysql</div>"
    },
    {
      "type": "text",
      "data": "<h1>建立資料庫</h1><div><a href=\"https://www.liquidweb.com/kb/create-a-mysql-database-on-linux-via-command-line/\">https://www.liquidweb.com/kb/create-a-mysql-database-on-linux-via-command-line/</a><br></div>"
    },
    {
      "type": "text",
      "data": "<h1>印出資料</h1>"
    },
    {
      "type": "code",
      "language": "typescript",
      "data": "先選擇 DB\nmysql > use DBName;\n\n印出 DB 所有 tables\nmysql > show tables;\n\n印出 Table 所有資料\nmysql > SELECT * FROM TableName;\n"
    }
  ]
}