{
  "title": "CSS",
  "cells": [
    {
      "type": "text",
      "data": "<h1>Style 標籤使用方式</h1>"
    },
    {
      "type": "code",
      "language": "html",
      "data": "<head>\n<style type=\"text/css\">\nh1 {color: red}\np {color: blue}\n</style>\n</head>"
    }
  ]
}