{
  "title": "折疊、展開函數",
  "cells": [
    {
      "type": "text",
      "data": "<div>Code &gt; 喜好設定 &gt; 鍵盤快速鍵</div><img src=\"quiver-image-url/F9E91CDC633A7DDAA10F155E35D70143.png\" alt=\"螢幕快照 2018-12-14 下午2.05.35.png\" width=\"262\" height=\"242\"><img src=\"quiver-image-url/9BB55E6DF0C8715E80B9EA9290AB086D.png\" alt=\"螢幕快照 2018-12-14 下午2.05.50.png\" width=\"238\" height=\"211\"><div>預設折疊函數是&nbsp;cmd k cmd [ 改 cmd [</div><div>預設展開函數是&nbsp;cmd k cmd ] 改 cmd ]</div><div><div><img src=\"quiver-image-url/FB890DE014778CE3CD89972E83F67386.png\" alt=\"螢幕快照 2018-12-14 下午2.08.16.png\" width=\"899\" height=\"218\"><br></div></div>"
    },
    {
      "type": "text",
      "data": ""
    }
  ]
}