{
  "title": "XCode - Interface builder 無法找到 Carthage  下載的 class",
  "cells": [
    {
      "type": "text",
      "data": "<h1>問題</h1><div>Carthage 拉下來的 framework, &nbsp;在使用 IBOutlet - &gt; 設定 custom class → 連結 Outlet 到 class 內。一但執行程式，會報錯<img src=\"quiver-image-url/49BCD48F7D8FD96E07A00EE952E2BC5C.png\" alt=\"2016-12-21_09-45-45.png\"></div>"
    },
    {
      "type": "text",
      "data": "<h1>解法</h1><div><img src=\"quiver-image-url/E89ADE2121528D4EF4CD6AD082311FA2.png\" alt=\"2016-12-21_09-55-27.png\"><br></div><div>打開右側的 Identity inspector 面板</div><div>以上圖為例，透過 Carthage 拉下來的 framework 是&nbsp;ZLSwipeableViewSwift, 但是我們是使用這 framework 內的&nbsp;ZLSwipeableView, 透過設定 class, module 就可以解決此問題，雖然 Xcode 依然會提出警告，但是可以無視！</div>"
    }
  ]
}