{
  "title": "康乃爾筆記法",
  "cells": [
    {
      "type": "text",
      "data": "<h1>URL</h1><div><a href=\"https://blog.evernote.com/zhtw/2016/09/06/timeless-note-taking-systems-for-students/?origin=email_silverpop&amp;utm_source=silverpop&amp;utm_medium=email&amp;utm_campaign=EVN-ENG-NLS-AP-TW-8888-TW_Sep_Newsletters_092116&amp;utm_content=hero&amp;spMailingID=15455870&amp;spUserID=MTU0MDk5MTkzODkzS0&amp;spJobID=861480227&amp;spReportId=ODYxNDgwMjI3S0\">https://blog.evernote.com/zhtw/2016/09/06/timeless-note-taking-systems-for-students/?origin=email_silverpop&amp;utm_source=silverpop&amp;utm_medium=email&amp;utm_campaign=EVN-ENG-NLS-AP-TW-8888-TW_Sep_Newsletters_092116&amp;utm_content=hero&amp;spMailingID=15455870&amp;spUserID=MTU0MDk5MTkzODkzS0&amp;spJobID=861480227&amp;spReportId=ODYxNDgwMjI3S0</a><br></div>"
    },
    {
      "type": "text",
      "data": "<p style=\"padding: 0px; margin: 0rem 0rem 1.25rem; color: rgb(42, 46, 53); -webkit-font-smoothing: antialiased; font-family: 'Hiragino Sans GB', STHeiti, 'Microsoft YaHei', sans-serif; font-size: 1rem; line-height: 1.5rem; font-variant-ligatures: normal; orphans: 2; widows: 2;\"><img src=\"quiver-image-url/5958015116EAE496B181117935DE9633.png\" alt=\"螢幕快照 2016-09-21 下午2.26.16.png\"><br></p><p style=\"padding: 0px; margin: 0rem 0rem 1.25rem; color: rgb(42, 46, 53); -webkit-font-smoothing: antialiased; font-family: 'Hiragino Sans GB', STHeiti, 'Microsoft YaHei', sans-serif; font-size: 1rem; line-height: 1.5rem; font-variant-ligatures: normal; orphans: 2; widows: 2;\">康乃爾筆記是將筆記本每頁分為三大區塊，方便使用者在同一個地方捕捉資訊、找出老師講課的重點，並從此出發打造真正的學習。這個系統非常適合高中或大學生在講課的情境下使用，對於律師或知識工作者來說也很實用。其詳細使用法為：</p><ol style=\"margin: 0px 0px 1.25rem 1.875rem; padding: 0px 0px 0px 19.625px; font-size: 1rem; line-height: 1.375rem; font-family: Gotham_SSm_3r, Helvetica, Arial, sans-serif; color: rgb(42, 46, 53); -webkit-font-smoothing: antialiased; font-variant-ligatures: normal; orphans: 2; widows: 2;\"><li style=\"margin-bottom: 8.51562px;\">記錄：課堂中，利用單句在左邊的筆記區塊裡記錄。</li><li style=\"margin-bottom: 8.51562px;\">問題：課堂一結束（記憶還很鮮明時），在右手邊的區塊裡組織問題。寫下問題可以幫助你釐清意義、找出關係、建立連續性、並強化記憶。寫下問題同時也有助於日後的考試準備。</li><li style=\"margin-bottom: 8.51562px;\">覆誦：將筆記的區塊用一張紙遮住，看看右邊你寫下的問題或關鍵字，試著用自己的講法大聲回答問題或關鍵字所提示的事實、概念等。</li><li style=\"margin-bottom: 8.51562px;\">思考：用自我提問的方法再次反想這些內容，例如：這些事實的重要性何在？它們是基於何原則？如何應用？它們與我已知的知識有何關聯？還有更多資訊嗎？</li><li style=\"margin-bottom: 8.51562px;\">複習：每週至少花十分鐘複習之前的筆記。以上如能確實做到，考試準備已經做了一大半了。</li><li></li></ol>"
    }
  ]
}