{
  "title": "自定義轉場效果，UINavigationBar 顯示異常",
  "cells": [
    {
      "type": "text",
      "data": "<h1>事件敘述</h1><div>從 A 導覽列的 vc → &nbsp;B 導覽列的 vc</div><div>如果是用自定義轉場，會產生 B 導覽列出現時，UI 顯示異常</div><div><img src=\"quiver-image-url/10F9CF3AE2E5BB3738E3A34A18F7494D.png\" alt=\"螢幕快照 2016-07-14 下午6.21.32.png\"><br></div>"
    },
    {
      "type": "text",
      "data": "<h1>解法</h1>"
    },
    {
      "type": "code",
      "language": "objectivec",
      "data": "- (void)viewWillAppear:(BOOL)animated {\n    [super viewWillAppear:animated];\n    \n    //修復導覽列因自定義轉場，導致的 UI 異常\n    self.navigationController.navigationBarHidden = YES;\n    self.navigationController.navigationBarHidden = NO;\n    [self.navigationController.navigationBar.layer removeAllAnimations];\n}"
    }
  ]
}