{
  "title": "Authorization check - 確認授權",
  "cells": [
    {
      "type": "code",
      "language": "swift",
      "data": "            let center = UNUserNotificationCenter.current()\n            center.requestAuthorization(options: [.alert, .sound, .badge]) { (granted, error) in\n                // Enable or disable features based on authorization.\n                if granted {\n                    print(\"准許\")\n                }\n                \n                if error != nil {\n                    print(\"error = \\(error.debugDescription)\")\n                }\n            }"
    }
  ]
}