{
  "title": "防火牆",
  "cells": [
    {
      "type": "text",
      "data": "<a href=\"https://www.arthurtoday.com/2013/12/ubuntu-ufw-add-firewall-rules.html\">https://www.arthurtoday.com/2013/12/ubuntu-ufw-add-firewall-rules.html</a>"
    },
    {
      "type": "text",
      "data": "<h1>啟用, 禁用</h1>"
    },
    {
      "type": "code",
      "language": "typescript",
      "data": "sudo ufw enable\nsudo ufw disable"
    },
    {
      "type": "text",
      "data": "<h1>加入白名單 &nbsp;- 透過 APP list</h1><div>透過 app list 自動加入 app 會使用到的 port</div>"
    },
    {
      "type": "code",
      "language": "typescript",
      "data": "$ sudo ufw app list\n\n// log\nAvailable applications:\n  Apache\n  Apache Full\n  Apache Secure\n  OpenSSH\n  \nsudo ufw allow OpenSSH"
    },
    {
      "type": "text",
      "data": "<h1>加入白名單 - 透過 Port&nbsp;</h1>"
    },
    {
      "type": "code",
      "language": "typescript",
      "data": "sudo ufw allow 20/tcp"
    },
    {
      "type": "text",
      "data": "<h1>確認白名單, 狀態</h1>"
    },
    {
      "type": "code",
      "language": "typescript",
      "data": "$ sudo ufw status\n\n// log\nStatus: active\n\nTo                         Action      From\n--                         ------      ----\n3306                       ALLOW       Anywhere\n3306 (v6)                  ALLOW       Anywhere (v6)"
    },
    {
      "type": "text",
      "data": "<h1>刪除 port</h1>"
    },
    {
      "type": "code",
      "language": "typescript",
      "data": "必須先取得 port 在 ufw 的 ID\n$ sudo ufw status numbered\n\n// log\nStatus: active\n\n     To                         Action      From\n     --                         ------      ----\n[ 1] 3306                       ALLOW IN    Anywhere\n[ 2] 3306 (v6)                  ALLOW IN    Anywhere (v6)\n[ 3] 20/tcp (v6)                ALLOW IN    Anywhere (v6)\n[ 4] 21/tcp (v6)                ALLOW IN    Anywhere (v6)\n[ 5] 22/tcp (v6)                ALLOW IN    Anywhere (v6)\n\n刪除 ID: 3, Port: 20\n$ sudo ufw delete 3"
    },
    {
      "type": "text",
      "data": "<br>"
    }
  ]
}