{
  "title": "Xcconfig 切換環境變數",
  "cells": [
    {
      "type": "text",
      "data": "<div><a href=\"https://www.appcoda.com.tw/xcconfig-guide/\">https://www.appcoda.com.tw/xcconfig-guide/</a><br></div><a href=\"https://orjpap.github.io/xcode/ios/swift/cocoapods/2020/04/20/iOS-build-schemes.html\">https://orjpap.github.io/xcode/ios/swift/cocoapods/2020/04/20/iOS-build-schemes.html</a>"
    },
    {
      "type": "text",
      "data": "<h1>注意, 以下截圖並非都來自同一份專案</h1>"
    },
    {
      "type": "text",
      "data": "<h1>步驟1, 建立 Build Configuration</h1><div>info tab &gt; Configurations section &gt; 專案預設有 Debug, Release 兩種環境</div><div><img src=\"quiver-image-url/A60457D1641AF8B891D62AD6CD840D94.png\" alt=\"截圖 2021-05-17 下午5.16.05.png\" width=\"1060\" height=\"533\"></div>"
    },
    {
      "type": "text",
      "data": "<div>點擊 + 按鈕 &gt; 拷貝 Debug Configuration (從Debug配置中刪除我們不需要的東西，比在Release配置放回所需的東西容易得多)<br></div><div>並且更名為你要的名字, 範例中是使用 Staging</div><div><div><img src=\"quiver-image-url/34E218259C0F2742E529BB70EE3B21E2.png\" alt=\"截圖 2021-05-17 下午5.18.20.png\" width=\"245\" height=\"116\"></div></div>"
    },
    {
      "type": "text",
      "data": "<h1>步驟2, 創建 .xcconfig</h1><div>名字叫做 Staging</div><div><br></div><div><img src=\"quiver-image-url/DF6639004CBE03BF1F1DEFB5B42855B4.png\" alt=\"截圖 2021-05-17 下午5.21.36.png\" width=\"723\" height=\"508\"><br></div><div><br></div><div>回到步驟1, 將 Staging configuration &gt; 由 none 改成 Staging (.xcconfig)</div><div><img src=\"quiver-image-url/8365C70CECF695B4A5775C4EBFE2F47D.png\" alt=\"截圖 2021-05-17 下午5.25.22.png\" width=\"1211\" height=\"337\"><br></div><div><br></div><div>其他配置 Release, Debug 都如法泡製, 創建 .xcconfig &gt; project &gt; info tab &gt; 將對應的 configuration 由 none 改成對應的 .xcconfig</div>"
    },
    {
      "type": "text",
      "data": "<h1>步驟3, 更改建構資訊</h1><div>以下以 Staging.xcconfig 作為範例解釋</div><div>開啟 Staging.xcconfig 填入想要設定的 key value</div><div><br></div><h2>NOTE:</h2><div>BACKEND_URL = http:\\/\\/api.intensifystudio.com/staging 在 .xcconfig 中, 會將 \\\\ 作為註解, 所以必須使用 /$()/ 才能夠避免註解的問題. $() 是塞變數用的, 所以當沒有設定變數時就不會有任何數值.<br></div>"
    },
    {
      "type": "code",
      "language": "swift",
      "data": "BACKEND_URL = http:/$()/api.intensifystudio.com/staging\nCONSUMER_KEY = ck_a57e4fa2e14c12f400371cf2951ec3dea5_staging\nCONSUMER_SECRET = cs_c847caa35ce1041e9c69d239141f13f63bb22b_staging"
    },
    {
      "type": "text",
      "data": "<h1>步驟4, 透過程式碼存取 .xcconfig 中自定義的變數</h1><div>新增變數到 info.plist</div><div><br></div><div><img src=\"quiver-image-url/9DBFF7DB532283BA3F41895AD17F2E28.png\" alt=\"截圖 2021-05-17 下午5.32.26.png\" width=\"1064\" height=\"610\"><br></div>"
    },
    {
      "type": "text",
      "data": "可以使用以下函數讀取數值, 嘗試隨意找個 controller 試著印出自定義的 Key"
    },
    {
      "type": "code",
      "language": "swift",
      "data": "func infoForKey(_ key: String) -> String? {\n        return Bundle.main.infoDictionary?[key] as? String\n    }"
    },
    {
      "type": "text",
      "data": "<h2>附註</h2><div>Info.plist 原始的 key</div><div>Bundle Identifier: PRODUCT_BUNDLE_IDENTIFIER</div><div>如果真的需要, 可以創一個新專案看看欄位的原始的 key 是什麼</div>"
    },
    {
      "type": "text",
      "data": "<h1>步驟5, CocoaPods(沒有使用可跳過此段設置)</h1><div>Podfile 不需設定任何程式碼, 執行 Pod install, 主要是必須要有此 config 資料夾, 如果資料取得不正確, 可以嘗試</div><div><ol><li>回到步驟2,&nbsp;project &gt; info tab &gt; 將對應的 configuration 由 none 改成對應的 .xcconfig</li><li>移除 Pods folder 重新執行 pod install</li></ol></div><div><img src=\"quiver-image-url/077B03A516292B5ABF9191F462841014.png\" alt=\"截圖 2021-05-17 下午6.25.51.png\" width=\"433\" height=\"516\"></div><div><br></div>"
    },
    {
      "type": "text",
      "data": "<h1>Final step, 在不同的環境配置中切換</h1><div>按住 option + 滑鼠左鍵 &gt; 點擊 scheme &gt; 選擇</div><div><img src=\"quiver-image-url/AD91132AFA35DBD5DE2D3F21B729890B.png\" alt=\"截圖 2021-05-17 下午5.59.12.png\" width=\"272\" height=\"38\"></div><div><br></div><div>Build configuration 選擇你要套用的 config.</div><div><img src=\"quiver-image-url/B0F6ABCE5D43BC295C4E47EC173F118A.png\" alt=\"截圖 2021-05-17 下午6.00.50.png\" width=\"930\" height=\"504\"><br></div>"
    }
  ]
}