{
  "title": "iOS Android, 模擬器、真機測試",
  "cells": [
    {
      "type": "text",
      "data": "<h1>指令列表</h1><div><a href=\"https://ionicframework.com/docs/cli/cordova/emulate/\">https://ionicframework.com/docs/cli/cordova/emulate/</a><br></div>"
    },
    {
      "type": "text",
      "data": "<h1>顯示可使用的模擬器</h1><div><pre style=\"margin-top: 0px; margin-bottom: 1em; padding: 5px; border: 0px; font-variant-ligatures: normal; font-variant-numeric: inherit; font-variant-east-asian: inherit; font-stretch: inherit; line-height: inherit; font-family: Consolas, Menlo, Monaco, &quot;Lucida Console&quot;, &quot;Liberation Mono&quot;, &quot;DejaVu Sans Mono&quot;, &quot;Bitstream Vera Sans Mono&quot;, &quot;Courier New&quot;, monospace, sans-serif; vertical-align: baseline; box-sizing: inherit; width: auto; max-height: 600px; overflow: auto; background-color: rgb(239, 240, 241); word-wrap: normal; color: rgb(36, 39, 41); orphans: 2; widows: 2;\"><code style=\"font-style: inherit; font-variant-ligatures: inherit; font-variant-position: inherit; font-variant-caps: inherit; font-variant-numeric: inherit; font-variant-alternates: inherit; font-variant-east-asian: inherit; font-stretch: inherit; line-height: inherit; font-family: Consolas, Menlo, Monaco, &quot;Lucida Console&quot;, &quot;Liberation Mono&quot;, &quot;DejaVu Sans Mono&quot;, &quot;Bitstream Vera Sans Mono&quot;, &quot;Courier New&quot;, monospace, sans-serif; font-size: 13px; vertical-align: baseline; box-sizing: inherit; background-color: rgb(239, 240, 241); white-space: inherit;\">顯示 iOS, Android 可用模擬器: ionic cordova emulate —list</code></pre><pre style=\"margin-top: 0px; margin-bottom: 1em; padding: 5px; border: 0px; font-variant-ligatures: normal; font-variant-numeric: inherit; font-variant-east-asian: inherit; font-stretch: inherit; line-height: inherit; font-family: Consolas, Menlo, Monaco, &quot;Lucida Console&quot;, &quot;Liberation Mono&quot;, &quot;DejaVu Sans Mono&quot;, &quot;Bitstream Vera Sans Mono&quot;, &quot;Courier New&quot;, monospace, sans-serif; vertical-align: baseline; box-sizing: inherit; width: auto; max-height: 600px; overflow: auto; background-color: rgb(239, 240, 241); word-wrap: normal; color: rgb(36, 39, 41); orphans: 2; widows: 2;\">顯示 iOS: <span style=\"font-style: inherit; font-variant-caps: inherit; white-space: inherit; background-color: rgb(239, 240, 241);\">ionic cordova emulate ios —list</span></pre><pre style=\"margin-top: 0px; margin-bottom: 1em; padding: 5px; border: 0px; font-variant-ligatures: normal; font-variant-numeric: inherit; font-variant-east-asian: inherit; font-stretch: inherit; line-height: inherit; font-family: Consolas, Menlo, Monaco, &quot;Lucida Console&quot;, &quot;Liberation Mono&quot;, &quot;DejaVu Sans Mono&quot;, &quot;Bitstream Vera Sans Mono&quot;, &quot;Courier New&quot;, monospace, sans-serif; vertical-align: baseline; box-sizing: inherit; width: auto; max-height: 600px; overflow: auto; background-color: rgb(239, 240, 241); word-wrap: normal; color: rgb(36, 39, 41); orphans: 2; widows: 2;\">顯示 Android: <span style=\"font-style: inherit; font-variant-caps: inherit; white-space: inherit; background-color: rgb(239, 240, 241);\">ionic cordova emulate android —list</span></pre></div>"
    },
    {
      "type": "text",
      "data": "<h1>iOS 以特定模擬器啟動專案, 並且即時更新</h1><div><pre style=\"margin-top: 0px; margin-bottom: 1em; padding: 5px; border: 0px; font-variant-ligatures: normal; font-variant-numeric: inherit; font-variant-east-asian: inherit; font-stretch: inherit; line-height: inherit; font-family: Consolas, Menlo, Monaco, &quot;Lucida Console&quot;, &quot;Liberation Mono&quot;, &quot;DejaVu Sans Mono&quot;, &quot;Bitstream Vera Sans Mono&quot;, &quot;Courier New&quot;, monospace, sans-serif; vertical-align: baseline; box-sizing: inherit; width: auto; max-height: 600px; overflow: auto; background-color: rgb(239, 240, 241); word-wrap: normal; color: rgb(36, 39, 41); orphans: 2; widows: 2;\"><code style=\"font-style: inherit; font-variant-ligatures: inherit; font-variant-position: inherit; font-variant-caps: inherit; font-variant-numeric: inherit; font-variant-alternates: inherit; font-variant-east-asian: inherit; font-stretch: inherit; line-height: inherit; font-family: Consolas, Menlo, Monaco, &quot;Lucida Console&quot;, &quot;Liberation Mono&quot;, &quot;DejaVu Sans Mono&quot;, &quot;Bitstream Vera Sans Mono&quot;, &quot;Courier New&quot;, monospace, sans-serif; font-size: 13px; vertical-align: baseline; box-sizing: inherit; background-color: rgb(239, 240, 241); white-space: inherit;\">ionic cordova emulate ios --target \"iPhone-X\" -livereload</code></pre></div>"
    },
    {
      "type": "text",
      "data": "<pre style=\"color: rgb(36, 39, 41); background-color: rgb(239, 240, 241); margin-top: 0px; margin-bottom: 1em; padding: 5px; border: 0px; font-variant-ligatures: normal; font-variant-numeric: inherit; font-variant-east-asian: inherit; font-stretch: inherit; line-height: inherit; font-family: Consolas, Menlo, Monaco, &quot;Lucida Console&quot;, &quot;Liberation Mono&quot;, &quot;DejaVu Sans Mono&quot;, &quot;Bitstream Vera Sans Mono&quot;, &quot;Courier New&quot;, monospace, sans-serif; vertical-align: baseline; box-sizing: inherit; width: auto; max-height: 600px; overflow: auto; word-wrap: normal; orphans: 2; widows: 2;\"><h1 style=\"font-family: -apple-system, Helvetica, Arial, sans-serif; white-space: normal;\">iOS 以特定模擬器啟動專案, 並且即時更新, 並且將 log 輸出到 Terminal</h1></pre><pre style=\"color: rgb(36, 39, 41); background-color: rgb(239, 240, 241); margin-top: 0px; margin-bottom: 1em; padding: 5px; border: 0px; font-variant-ligatures: normal; font-variant-numeric: inherit; font-variant-east-asian: inherit; font-stretch: inherit; line-height: inherit; font-family: Consolas, Menlo, Monaco, &quot;Lucida Console&quot;, &quot;Liberation Mono&quot;, &quot;DejaVu Sans Mono&quot;, &quot;Bitstream Vera Sans Mono&quot;, &quot;Courier New&quot;, monospace, sans-serif; vertical-align: baseline; box-sizing: inherit; width: auto; max-height: 600px; overflow: auto; word-wrap: normal; orphans: 2; widows: 2;\"><code style=\"font-family: Consolas, Menlo, Monaco, &quot;Lucida Console&quot;, &quot;Liberation Mono&quot;, &quot;DejaVu Sans Mono&quot;, &quot;Bitstream Vera Sans Mono&quot;, &quot;Courier New&quot;, monospace, sans-serif; line-height: inherit; font-size: 13px; background-color: rgb(239, 240, 241); font-style: inherit; font-variant-ligatures: inherit; font-variant-position: inherit; font-variant-caps: inherit; font-variant-numeric: inherit; font-variant-alternates: inherit; font-variant-east-asian: inherit; font-stretch: inherit; vertical-align: baseline; box-sizing: inherit; white-space: inherit;\">ionic cordova emulate ios --target \"iPhone-X\" -livereload -c</code></pre>"
    },
    {
      "type": "text",
      "data": "<h1>Android 模擬器或真機啟動, 並且即時更新</h1><div>ionic cordova run android --prod -l</div><div><br></div><h2>真機</h2><div>手機連接電腦即可</div><h2>模擬器</h2><div><ol><li>先確保安裝過 Android studio<br></li><li>設定一個你想要使用的模擬器, 並直接讓模擬器啟動過一次 ( 不需透過專案啟動 )<br></li><li>確保要執行的模擬器是「啟動中」<br></li></ol><div><img src=\"quiver-image-url/AB3620856268229FD3765F1596CE6C6F.png\" alt=\"step1.png\" width=\"1440\" height=\"900\"><br></div></div><div><img src=\"quiver-image-url/4C65EE4E35706BE61969FE38385542A1.png\" alt=\"螢幕快照 2018-08-09 上午10.33.39.png\" width=\"1112\" height=\"784\"><br></div><div>Graphics - &nbsp;選擇硬體繪圖, 會成像較快</div><div><img src=\"quiver-image-url/31AE3DE356EA3746593A90165BA95798.png\" alt=\"step3.png\" width=\"2000\" height=\"1344\"><br></div>"
    },
    {
      "type": "text",
      "data": "<br>"
    }
  ]
}