{
  "title": "NSOperation",
  "cells": [
    {
      "type": "text",
      "data": "<h1>重點</h1><div><ul><li>一旦加入進去隊列，會立即執行</li><li>一旦執行完成，本身會變成 nil, 立即被釋放掉，無法判斷目前 operation 狀態</li></ul></div>"
    }
  ]
}