{
  "title": "會用到的英文",
  "cells": [
    {
      "type": "text",
      "data": "<h1>開會用到的英文單字</h1><div>suspect 疑似<br></div><div>interpretation, n, 解釋<br></div><div>Intend 打算</div><div>Practical 實際的</div><div>Effort 努力</div><div>Emphasize 強調</div><div>Enhancement 提高, 增強</div><div>Achieve</div><div>Approve&nbsp;</div><div>Artifact, 人為噪音(公司用法)</div><div>Frequently, Often&nbsp;</div><div>usually,&nbsp;</div><div>Ideal,</div><div>Proposal,</div><div>Terminologies</div><div>Impact,</div><div>Positive, Negative value</div><div>Complex&nbsp;</div><div>Overlap with, 與...部分重疊</div><div>MVP 最小可用產品</div><div>Logistics</div><div>Draft</div><div>Clinical</div><div>Clarify</div><div>Retorspective 回顧會議</div><div>Diagnosis 診斷</div><div>General idea</div><div>Refer</div><div>Settle</div><div>Capacity</div><div>Boundaries</div><div>Deliver</div><div>individual 個人的</div><div>intention 意圖, 目的</div><div>distributor</div><div>associate</div><div>estimate 估計</div><div>Settle 解決</div><div>Consult 諮詢</div><div>Measure 測量, 衡量</div><div>Involve 涉及</div>"
    },
    {
      "type": "text",
      "data": "<h1>生活英文</h1><div><br></div><div>Overcomes</div><div>Concern 關心</div><div>Bump</div><div>Rather than, 而不是</div><div>Novice </div><div>Chest </div><div>Wondering 想知道</div><div>Attractive</div><div>Suddenly</div><div>Satisfy</div><div>As well, too 也</div><div>Right, n, 權利</div><div>Bypass</div><div>Bear with … 忍耐某事物</div><div>Rushing 催促</div><div>Afterwards</div><div><br></div>"
    },
    {
      "type": "text",
      "data": "<h1>片語</h1><div>let's wait a little bit longer 讓我們在等一會兒</div><div>Leave comment below 留言</div><div>general speaking 一般來說</div><div>I think we should put it this way 我想我們應該這樣說</div><div><br></div><div>This depends on how much noise do we detect.</div><div>這取決於我們檢測到多少噪聲.</div><div><br></div><div>treat:</div><div>We treat it as one complete set of data</div><div>我們把它看作一組完成的資料</div><div><br></div><div>因為我通常做的順序與站立會議時相反.</div><div>because I usually do the opposite sequence than standup</div><div><br></div><div>just leave it like that 就這樣離開吧, like that 是強調 just love it</div><div><br></div><div>To further remind user, 進一步提示使用者</div><div><br></div><div>this is something that we can't differentiate, 這是我們無法區別的</div><div><br></div><div>pretty much it. 差不多了</div><div><br></div><div>Hopefully won’t occupy you for long 希望不會佔據你太多時間</div><div><br></div><div>and then do translation accordingly 然後作出相應的翻譯</div>"
    },
    {
      "type": "text",
      "data": "<h1>程式英文</h1><div><br></div><div>Trailing closure 尾隨閉包</div><div>Stretch, Image 大小調整預設模式</div><div>aspect Ratio 長寬比 (注意發音)</div>"
    },
    {
      "type": "text",
      "data": "<h1>還沒整理的</h1><div><div>algorithm</div><div>as you say</div><div>consider</div><div>conclusion</div><div>let's say</div><div>similar</div><div>frequency</div><div>cardioBird idle on the table</div><div>I can not test it on my side</div><div>common problem</div><div>Cardiologists</div><div>analytics</div><div>in a so seriously place to do my work, and that will make more focus on my job</div><div>crowd</div><div>suffix</div><div>retention</div><div>landing page</div><div>suggestion</div><div><br></div><div>unexpect problem</div></div>"
    }
  ]
}