{
  "title": "Init",
  "cells": [
    {
      "type": "text",
      "data": "<p style=\"margin: 0px; font-stretch: normal; font-size: 12px; line-height: normal; font-family: &quot;PingFang TC&quot;; color: rgb(0, 0, 0);\"></p><ul><li>Designated initializer 裡不可以用 self.init(...) 來指定呼叫同個 class 中的其他 initializer，這樣做是不合法的。<br></li><li>Designated initializer 不能呼叫 self ，直到所有 stored properties 都被初始化完成（除非是為了給自己的 stored properties 賦予初始值）<br></li><li><span style=\"color: rgb(0, 0, 0);\">Convenience initializer 必須委派到 designated initializer，且必須是同一個 class 的 designated initializer，且被 convenience initializer 修改到的 stored properties 必須為 var</span></li></ul>"
    },
    {
      "type": "text",
      "data": "<h1>重點</h1><div>如果你不想實作 init(), 那就設定 property value (line 2)</div>"
    },
    {
      "type": "code",
      "language": "swift",
      "data": "class Dog {\n    var name = \"Koko\"\n    convenience init(name : String) {\n        self.init()\n        self.name = name\n    }\n}\nlet doggie = Dog()\nlet doggie2 = Dog(name: \"doggie\")"
    }
  ]
}