{
  "title": "介系詞",
  "cells": [
    {
      "type": "text",
      "data": "<h1>介系詞</h1><div><ul><li>At 是用在精準的地點或者時間描述, meet at 7-11 store</li><li>In 則是大範圍的, 例如台北市, 台灣, live in Taiwan</li><li>On 是停留在某種東西之上, on the road</li><li>Above 在特定的人事物之上, 有比較的意圖</li><li>Over 也是在某東西之上, over the top</li></ul></div>"
    },
    {
      "type": "text",
      "data": "<h1>As, 作為</h1><div>she works as a waittress. Waitress 女服務生, waiter男服務生</div><div><br></div><h1>As Adj as Subject, 比較用</h1><div>I can speak as faster as you 我可以跟你說話一樣快,</div><div>She can’t do job as good &nbsp;as me.</div><div><br></div><h1>As well as, And 的意思 (少用)</h1><div>書本中比較常見這樣的用法, 一般都用 and</div><div>john as well as Mary wants leave school early</div><div><br></div><h1>As far as, 提及/談到某人事物</h1><div><ul><li>be ture to 忠於(忠誠地對待的意思)<br></li><li>Perform, V, 執行<br></li><li>performing, Adj, 表演的<br></li></ul></div><div><br></div><div>well, you know, as far as performing Pooh, you have to be true to character. 恩, 你知道的, 提到表演維尼這件事, 你必須忠於角色.</div><div>As far as I know, Taiwan is a freedom country. 據我所知, 台灣是一個自由國家.</div><h2>進展到(某程度), 達到(某地點)</h2><div>前面常有動詞, 後面接名詞</div><div><ul><li>by the week 每週<br></li></ul></div><div>my plan is to read as far as 15 chapter by the end of the week. 我的計畫是這星期結束前要讀到第十五章</div><div>if I want to develop as far as 2 features by the week, it is doable. 如果我想要每週開發兩個功能, 是做得到的.</div><div>You can go &nbsp;as far as the beautiful lake if you are not tired. 如果你不累的話, 可以走遠一點到那個漂亮的湖.</div><h2>一樣遠</h2><div>Singapore is as far as Hokkaido from TW, if you take a direct flight to either place, it will take 4 to 5 hours.</div>"
    },
    {
      "type": "text",
      "data": "<h1>By</h1><div>Byt the week, 在這週結束之前</div>"
    }
  ]
}