{
  "title": "Rebase 完成流程",
  "cells": [
    {
      "type": "text",
      "data": "<ol><li>Rebase 的意義, 用下圖解釋</li><li><img src=\"quiver-image-url/1753323348415144D6914D406C13A637.jpg\" alt=\"S__229379.jpg\">先 double click 要合併的分支</li><li>在 history 上點任意節點右鍵, 選擇 rebase</li><li><img src=\"quiver-image-url/0F345822246ABC91B25BC1CC34F01849.png\" alt=\"螢幕快照 2018-03-12 下午3.46.21.png\"><br></li><li>如果衝突, 解完所有衝突後, 將衝突解決的檔案提交到 staged files</li><li><img src=\"quiver-image-url/D581CCC7EDE287FCDFA38BE2504E19F2.png\" alt=\"2018-03-12_15-55-36.png\"><br></li><li>打開 terminal → <code>git status</code> → 確認狀況後 → 使用 <code>git continue</code></li><li>假設本地分支跟遠端的分支結構都一樣, 在執行 push 時會順利的上去, 若出現警告則需使用 <code>git push -f</code></li></ol>"
    }
  ]
}