{
  "title": "Status bar change text",
  "cells": [
    {
      "type": "text",
      "data": "<h1>說明</h1><div><ul><li><span style=\"color: rgb(221, 221, 221);\">Status bar style 關係著 text color 的顯示, 詳細請看 API</span></li><li><font color=\"#cccccc\">Application 預設 status bar text color = 黑色 ( default )</font></li></ul></div>"
    },
    {
      "type": "text",
      "data": "<h1>注意</h1><div>假設有 A B C 三個 scene</div><div>&nbsp;我在 A 將 status bar style -&gt; 改黑色文字</div><div>接下來的 B C 都會是黑色文字，狀態列的顯示是&nbsp;<code><u style=\"font-size: 14px;\"><font face=\"Menlo\"><b>有延續性的</b></font></u></code></div>"
    },
    {
      "type": "text",
      "data": "<h1>做法 1 - 百分之 90 畫面是“白色文字”，少許畫面是“黑色文字”</h1><h2>做法（適用 iOS 10）</h2><div><ol><li>先將 .plist 新增 View controller-based status bar appearance 並設定為 NO，注意不要複製前面的 View controller…..xxx, 用手打輸入，不然會失效</li><li>bundle -&gt; general -&gt; status bar style -&gt; 改成 light</li><li>特定畫面必須是黑色文字, 加入以下程式碼</li></ol></div>"
    },
    {
      "type": "code",
      "language": "swift",
      "data": "[UIApplication sharedApplication].statusBarStyle = UIStatusBarStyleDefault;"
    },
    {
      "type": "text",
      "data": "<h1>做法 2 - 百分之 90 以上“黑色文字”，少許畫面是”白色文字“</h1><h2>做法</h2><div><ul><li><font color=\"#cccccc\">確保有移除&nbsp;</font><span style=\"color: rgb(221, 221, 221);\">View controller-based status bar appearance 此 key（預設是 YES，可放心移除），或設定為 YES 。</span></li><li><font color=\"#cccccc\">view controller -&gt; view did load -&gt; [self setNeedStatusbarAppearanceUpdate]</font></li><li><font color=\"#cccccc\">over write 以下方法</font></li></ul></div>"
    },
    {
      "type": "code",
      "language": "swift",
      "data": "- (UIStatusBarStyle)preferredStatusBarStyle {\n    return UIStatusBarStyleLightContent;\n}"
    }
  ]
}