{
  "title": "人",
  "cells": [
    {
      "type": "text",
      "data": "<div>AI 部分找 Robin</div><div>Louis 是 Donald的手下, 通常負責 app 端的東西</div><div>Donald 沒有什麼事他不知道的, 全面性問題可以找他</div><div><br></div><div>Alicia 是香港客服主管</div><div>Gon, 上次我坐他座位的男生</div><div>Callie 另外一位女客服</div>"
    },
    {
      "type": "text",
      "data": "Ken<div>有任何問題就問, 他希望我不要“害怕”問問題</div><div>但是不要主動給意見, 除非他問你</div>"
    }
  ]
}