{
  "title": "Tools",
  "cells": [
    {
      "type": "text",
      "data": "<h1>倒數計時</h1>"
    },
    {
      "type": "code",
      "language": "python",
      "data": "private static interval;\n  static startTimer(second: number) {\n    var _second = second;\n    this.interval = setInterval(() => {\n      if (_second === 0) {\n        clearInterval(this.interval);\n        return;\n      }\n      _second -= 1;\n      console.log('-1');\n    }, 1000);\n  }"
    }
  ]
}