{
  "title": "英文推薦信",
  "cells": [
    {
      "type": "text",
      "data": "<h1>面試技巧</h1><div><div>除了基本的技術能力外，面試時要向雇主展現自己「有 ownership 專案的經驗」，雇主需要知道自己有能力承擔工作。若過去有負責過哪些 project，就很適合拿來說明。</div><div><br></div><div>另外，展現「溝通能力」也很重要。透過完整表達自己的想法、展示過往作品，可以向雇主展現自己是什麼樣的一個人。</div></div>"
    },
    {
      "type": "text",
      "data": "<h1>Cover letter&nbsp;</h1><div><ul><li><a href=\"https://tw.blog.voicetube.com/archives/4924/%E8%8B%B1%E6%96%87%E6%B1%82%E8%81%B7%E4%BF%A1-cover-letter-%E9%80%99%E6%A8%A3%E5%AF%AB%EF%BC%8C%E8%AE%93%E8%80%81%E9%97%86%E4%B8%8D%E7%94%A8%E4%BD%A0%E9%83%BD%E4%B8%8D%E8%A1%8C%EF%BC%81/\">https://tw.blog.voicetube.com/archives/4924/%E8%8B%B1%E6%96%87%E6%B1%82%E8%81%B7%E4%BF%A1-cover-letter-%E9%80%99%E6%A8%A3%E5%AF%AB%EF%BC%8C%E8%AE%93%E8%80%81%E9%97%86%E4%B8%8D%E7%94%A8%E4%BD%A0%E9%83%BD%E4%B8%8D%E8%A1%8C%EF%BC%81/</a></li><li><a href=\"https://ai.glossika.com/zh-tw/blog/english_cover_letter_19062018\">https://ai.glossika.com/zh-tw/blog/english_cover_letter_19062018</a><br></li></ul></div>"
    },
    {
      "type": "text",
      "data": "<h1>自己寫的, Ray 有改過</h1>"
    },
    {
      "type": "text",
      "data": "<div><p style=\"margin: 0px; font-stretch: normal; font-size: 11px; line-height: normal; font-family: &quot;Helvetica Neue&quot;; color: rgb(0, 0, 0);\">Dear Haiyan Liu,</p>\n<p style=\"margin: 0px; font-stretch: normal; font-size: 11px; line-height: normal; font-family: &quot;Helvetica Neue&quot;; color: rgb(0, 0, 0); min-height: 12px;\"><br></p>\n<p style=\"margin: 0px; font-stretch: normal; font-size: 11px; line-height: normal; font-family: &quot;Helvetica Neue&quot;; color: rgb(0, 0, 0); -webkit-text-stroke-width: initial; -webkit-text-stroke-color: rgb(0, 0, 0);\">My name is YoChang Luo, I have devoted to the mobile application industry for 6 years, so far I finished 11 projects. I found your company via slasify.com and I am interested in applying for the front-end engineer position of your company. Your company<span style=\"font-stretch: normal; line-height: normal; font-family: &quot;Arial Unicode MS&quot;;\">’</span>s products are absolutely amazing. For example, my favorite template of your company is the <span style=\"font-stretch: normal; line-height: normal; font-family: &quot;Arial Unicode MS&quot;;\">“</span>cocktail party”. The breath-taking user experience made by your company triggers my motivation to create more innovative products in the future. During the global pandemic, turning offline activities into online, continuing to connect with people from all over the world, and contributing my work to the world really excites me<b>.</b> I believe my education and experience make me a competitive candidate for the position.</p>\n<p style=\"margin: 0px; font-stretch: normal; font-size: 11px; line-height: normal; font-family: &quot;Helvetica Neue&quot;; color: rgb(0, 0, 0); -webkit-text-stroke-width: initial; -webkit-text-stroke-color: rgb(0, 0, 0); min-height: 12px;\"><br></p>\n<p style=\"margin: 0px; font-stretch: normal; font-size: 11px; line-height: normal; font-family: &quot;Helvetica Neue&quot;; color: rgb(0, 0, 0); -webkit-text-stroke-width: initial; -webkit-text-stroke-color: rgb(0, 0, 0);\">As shown in my resume, I was the full-stack engineer in my last company, through this experience, I have acquired wide range of desktop web skills demanded by your skillset listed on the recruiting website. I can develop both of mobile/desktop web and backend and possess the ability to solve any encountered problems either by myself or reaching out for help with my co-workers. Eventually, I finished 5 projects via Angular8, NestJS and RxJS. In the past, we are used to exploit \"load test\", \"stress test\" and \"stability test\" as the main equipment in order to judge the performance of a project. However, while facing performance problems, we tend to use \"PageSpeed ​​Insights\" as the backup plan for performance evaluation. Our team would like to reduce the use of pictures as much as possible, or used optimized pictures and CDN to speed up website performance. When the project performs via agile development, we use Jira and Slack as project management tools and trace bugs via Sentry .</p>\n<p style=\"margin: 0px; font-stretch: normal; font-size: 11px; line-height: normal; font-family: &quot;Helvetica Neue&quot;; color: rgb(0, 0, 0); -webkit-text-stroke-width: initial; -webkit-text-stroke-color: rgb(0, 0, 0); min-height: 12px;\"><br></p>\n<p style=\"margin: 0px; font-stretch: normal; font-size: 11px; line-height: normal; font-family: &quot;Helvetica Neue&quot;; color: rgb(0, 0, 0); -webkit-text-stroke-width: initial; -webkit-text-stroke-color: rgb(0, 0, 0);\">Given my background in mobile application and my program skills, I believe I am a perfect fit for the Front-end Engineer job at Run The World. I have the ability to work within teams and solve new problems quickly, which are essential skills for working for a fast-paced startup. I would appreciate an opportunity to discuss my qualifications, I am looking forward to hearing from you.&nbsp;</p></div>"
    },
    {
      "type": "text",
      "data": "<h1>iOS 求職信</h1><div><a href=\"https://www.yourator.co/companies/ANIWARE/jobs/13507#_=_\">https://www.yourator.co/companies/ANIWARE/jobs/13507#_=_</a><br></div><div><br></div><div><div>My name is Rowan Luo, I have devoted to the mobile app for 6 years, I'm interested in the iOS Engineer of your company. As shown in my resume, except for iOS, I also can develop Web appl via Angular framework, develop Back-end service via NestJS and follow RESTful protocol.&nbsp;</div><div>All the time, my company always uses agile product development, so I am familiar with it. Although I haven't React development of experience, my positive attitude and experience will help me get on the track quickly. Given my background in mobile application and my program skills, I have the ability to work within teams and solve new problems quickly, which are essential skills for working for a fast-paced startup. I would appreciate an opportunity to discuss my qualifications, I am looking forward to hearing from you.&nbsp;</div></div>"
    },
    {
      "type": "text",
      "data": "<h1>Angular 求職信</h1><div><div>My name is Rowan Luo, I live in Taiwan who is a Taiwanese and I have been in the Front-end application industry for 6 years. I found your company through WWR and I am interested in applying for your company's Angular Developer position.</div><div><br></div><div>As shown in my resume, I am a Fullstack Engineer in the previous company, and rich ios development experience, therefore, I can develop a native iOS app, web app, or Backend service. In the end, I completed 5 projects with Angular8+, NestJS, and RxJS that two of them supported on iOS, Android, Web platform.</div><div><br></div><div>Given my background in mobile applications and my programming skills, I believe I am very suitable for the Angular Developer position. I have the ability to collaborate with the team and quickly solve new problems. I am very happy to have the opportunity to discuss my qualifications, and I look forward to hearing from you.</div></div>"
    }
  ]
}