{
  "title": "生活英文",
  "cells": [
    {
      "type": "code",
      "language": "swift",
      "data": "Overcomes\nConcern 關心\nBump\nRather than, 而不是\nNovice\nChest\nWondering 想知道\nAttractive\nSuddenly\nSatisfy\nAs well, too 也\nRight, n, 權利\nBypass\nBear with … 忍耐某事物\nRushing 催促\nAfterwards\ncrowd 一群"
    }
  ]
}