{
  "created_at" : 1570524286,
  "tags" : [

  ],
  "title" : "檔案 · c309a655fe14f38fbad9236423a7f5a5c8e2e19e · CashGame \/ managementBackstage",
  "updated_at" : 1570524287,
  "uuid" : "0260B63A-A794-41FF-9534-3B355706FC49"
}