{
  "title": "問題紀錄表",
  "cells": [
    {
      "type": "text",
      "data": "<h1>第一次上傳始終崩潰</h1><h2>回報者: Joanna</h2><div><div>業務說是第一次上傳才有這問題，當場再重開app和重采ECG之後都順利</div><div>這兩家第一次做cardiobird的時候有發生這狀況：</div><div>[18077]芭比堂动物医院快乐阿宝分院</div><div>[19186]美联众合京西动物医院有限公司</div></div><div><br></div><h2>初步判斷</h2><div>客人所使用的版本, 很可能是舊版本, 所以請對方先更新</div><div>可能舊版的原因如下:</div><div><ul><li>上傳 ecg &gt; 崩潰 &gt; 重啟 app &gt; 已經遺失 ecg</li><li>此事件並非當下即時發生, 而是有段時間之前了</li></ul></div>"
    },
    {
      "type": "text",
      "data": "<h1>練習模式 &gt; 採集ECG崩潰, 以及小幫手是關閉, 但是會出現</h1><h2>回報人: Ken</h2>"
    },
    {
      "type": "code",
      "language": "swift",
      "data": "I tried the pre-release in practice mode\nthe app crash when I captured ECG at practice mode, and at the signal quality check pop up, I press “continue”\n\nI think there was one time I turn off “signal helper” and then it still show the “signal helper” on the ECG collection screen… but crash when the capturing almost time up\n\n//  詳細操作步驟\nRemove App -> install app -> login -> practice mode -> help will display -> capture ECG -> signal quality feedback pop up show -> press continue -> crash\nReopen App -> go to setting -> turn off Signal Helper -> go to Practice mode -> for some reason signal helper didn’t dismissed -> capture ECG -> crash at some point during ECG capturing\n"
    },
    {
      "type": "code",
      "language": "swift",
      "data": "\"data_too_short\" = \"心电图信号不稳，建议重测。\\n\\n如继续使用现有数据，有可能无法成功判读或影响报告内容。\\n\\n如重测，请执行下列事项以确保心电图讯号的稳定性。\\n\\n1. 请将知心鸟移近手机/平板\\n2. 确认知心鸟已充电\\n3. 尽量减低环境干扰\\n4. 确保知心鸟与手机/平板之间并没有任何阻隔(如其他仪器或身体)影响信号接收\";"
    },
    {
      "type": "text",
      "data": "<p style=\"margin: 0px; font-stretch: normal; line-height: normal; font-family: &quot;Helvetica Neue&quot;;\">ix: data_too_short 中國版本翻譯由CardioBird 改為知心鸟</p>"
    }
  ]
}